{
    "test_settings": {
        "docker-compose-chrome": {
            "selenium_host": "selenium-chrome-standalone",
            "desiredCapabilities": {
                "browserName": "chrome"
            }
        }
    },
    "webdriver": {
        "start_process": false,
        "port": 4444
    }
}
  